insert into ativo("Nome","Ticker","CodSetor") 
VALUES('Bardella','BDLL4F',1),
('UPS','UPSS34F',1),
('Lockheed','LMTB34F',1),
('Johnson','JNJB34F',1),
('Fedex Corp','FDXB34F',1),
('Exxon Mobile','EXXO34F',1),
('Caterpillar','CATP34F',1),
('Bristolmyers','BMYB34F',1),
('Boeing','BOEI34F',1),
('Arcelor','ARMT34F',1),
('American Express','AXPB34F',1),
('Abbott Laboratories','ABTT34F',1),
('Santos - Brasil','STBP3F',1),
('Randon Part','RAPT3F',1),
('Engie','EGIE3F',1),
('MMX Mineração','MMXM11F',1),
('Lupatech','LUPA3F',1),
('Inepar','INEP4F',1),
('Ger Paranapanema','GEPA4F',1),
('Fras-Le','FRAS3F',1),
('Afluente T','AFLT3F',1),
('Schulz','SHUL4F',1),
('Suzano Holding','NEMO5F',1),
('Taurus Armas','TASA4F',1),
('Tecnisa','TCSA3F',1),
('Unipar','UNIP3F',1),
('Whirpool','WHRL4F',1),
('Whirlpool','WHRL3F',1),
('Ourofino S/A','OFSA3F',1),
('GOL','GOLL11',1),
('Eternit','ETER3F',1),
('Valid','VLID3F',1),
('Triunfo Part','TPIS3F',1),
('PBG','PTBL3F',1),
('Marcopolo','POMO4F',1),
('Cosan Log','RLOG3F',1),
('Aço Altona','EALT3F',1),
('Eneva','ENEV3F',1),
('Banco Pan','BPAN4F',1),
('Weg','WEGE3F',1),
('ViaVarejo','VVAR3F',1),
('RUMO LOG','RAIL3F',1),
('Vale','VALE3',1),
('Usiminas','USIM6',1),
('Santos Brasil Participações','STBP3',1),
('Invepar','IVPR4B',1),
('Contax','LIQO3',1),
('Celulose Irani','RANI3',1),
('CCR','CCRO3',1),
('Azul','AZUL4',1),
('Bardella','BDLL3F',1),
('UPS','UPSS34',1),
('Lockheed','LMTB34',1),
('Fedex Corp','FDXB34',1),
('Caterpillar','CATP34',1),
('Boeing','BOEI34',1),
('Randon Part','RAPT4F',1),
('MMX Mineração','MMXM3F',1),
('Lupatech','LUPA3',1),
('Inepar','INEP3F',1),
('Ger Paranapanema','GEPA3F',1),
('Fras-Le','FRAS3',1),
('Schulz','SHUL4',1),
('Taurus Armas','TASA3F',1),
('GOL','GOL4F',1),
('Eternit','ETER3',1),
('Valid','VLID3',1),
('Triunfo Part','TPIS3',1),
('Marcopolo','POMO3F',1),
('Cosan Log','RLOG3',1),
('Aço Altona','EALT4F',1),
('Eneva','ENEV3',1),
('Weg','WEGE3',1),
('RUMO LOG','RAIL3',1),
('Usiminas','USIM5',1),
('Invepar','IVPR3B',1),
('Bardella','BDLL4',1),
('Randon Part','RAPT4',1),
('Inepar','INEP4',1),
('Schulz','SHUL3',1),
('Taurus Armas','TASA4',1),
('GOL','GOLL4',1),
('Marcopolo','POMO4',1),
('Aço Altona','EALT4',1),
('Usiminas','USIM3',1),
('Bardella','BDLL3',1),
('Randon Part','RAPT3',1),
('Inepar','INEP3',1),
('Taurus Armas','TASA3',1),
('Marcopolo','POMO3',1),
('Aço Altona','EALT3',1)

